CI,DEPTO,NOMBRES,APELLIDOS,CIUDAD,FECHA NAC.,DIRECCION,TELF. DE CONTACTO,TELF. DE REFERENCIA,EMAIL
5874852,lp,Anabel,Cespedes,la paz,30/08/1992,Calle Linares Nro 456,2457895,74587456,anabel@gmail.com
7854785,lp,Anamaria,Mollinedo,la paz,30/08/1992,Calle Jose Gutierrez nro 789,2745874,60852558,anamaria@gmail.com
1524582,lp,Anastasia,Nova,el alto,30/08/1992,Av Pacifico nro 111,2514585,60189554,anastasia@gmail.com
